<?xml version="1.0" encoding="UTF-8"?>
<svg viewBox="0 0 341 241" version="1.1" xmlns="http://www.w3.org/2000/svg"
     xmlns:xlink="http://www.w3.org/1999/xlink">
    <g transform="translate(170.500000, 120.500000) rotate(-180.000000) translate(-170.500000, -120.500000) ">
        <path d="M145.768,240.197 C139.631,240.197 133.518,234.366 132.356,233.195 C128.162,230.103 17.274,146.504 5.087,134.339 C0.665,129.895 -0.116,125.445 0.013,122.483 C0.301,115.394 5.781,110.548 6.402,110.02 L129.738,7.946 C131.089,6.472 137.355,0.335 143.315,0.335 C146.032,0.335 152.346,1.578 152.346,13.026 L152.346,65.649 L326.47,65.649 C326.956,65.568 327.605,65.493 328.373,65.493 C330.403,65.493 340.533,66.267 340.533,81.469 L340.533,162.339 C340.533,173.526 332.606,176.492 328.415,176.492 L156.012,176.492 L156.012,224.722 C156.012,238.191 149.593,240.197 145.768,240.197 Z"
        ></path>
    </g>
</svg>
