{
  "title": "Премиальные сенсорные светильники для кухни",
  "colorSelect": [
    {
      "id": "c-s-gold",
      "type": "gold",
      "label": "Золотой"
    },
    {
      "id": "c-s-white",
      "type": "white",
      "label": "Белый"
    },
    {
      "id": "c-s-black",
      "type": "black",
      "label": "Черный"
    },
    {
      "id": "c-s-silver",
      "type": "silver",
      "label": "Серебристый"
    }
  ],
  "features": [
    {
      "id": "f-01",
      "content": "Установка под размер Вашей кухни за 72 часа",
      "icon": "speed"
    },
    {
      "id": "f-02",
      "content": "Гарантия 5 лет",
      "icon": "policy"
    },
    {
      "id": "f-03",
      "content": "Бесконтактное управление светом",
      "icon": "tap"
    },
    {
      "id": "f-04",
      "content": "Эксклюзивность",
      "icon": "bright-stars"
    }
  ]
}
