{
  "features": [
    {
      "id": "01",
      "content": "Бесконтактная система управления"
    },
    {
      "id": "02",
      "content": "Светодиоды высокой цветопередачи"
    },
    {
      "id": "03",
      "content": "Алюминиевый корпус без перегрева"
    },
    {
      "id": "04",
      "content": "Низкое энергопотребление"
    },
    {
      "id": "05",
      "content": "Легко монтируется самостоятельно"
    },
    {
      "id": "06",
      "content": "Удобно готовить"
    }
  ],
  "carousel": [
    {
      "id": "01",
      "image": "01.jpg"
    },
    {
      "id": "02",
      "image": "02.jpg"
    },
    {
      "id": "03",
      "image": "03.jpg"
    },
    {
      "id": "04",
      "image": "04.jpg"
    },
    {
      "id": "05",
      "image": "05.jpg"
    },
    {
      "id": "06",
      "image": "06.jpg"
    }
  ]
}
